Time,Tx,Sent,Size,Fees,BlCnt,BadBlCnt
1506124800000,0,0,271056,0,406,0
1506211200000,5,2807920,2876663,699398,4320,0
1506297600000,8,7137575,2742565,520637,4320,0
1506384000000,1,1100602,2863442,178761,4320,0
1506470400000,6,4926143404325529,2741944,683577,4320,0
1506556800000,36,5469039088766060,2888367,2245973,4320,14
1506643200000,2487,7117944867864240,3556882,97645858,4320,0
1506729600000,2528,9117110200283407,3489211,146158702,4320,1
1506816000000,3096,20112710330154371,3869136,291170785,4320,4
1506902400000,2943,41661223958908822,3706416,316074603,4320,6
1506988800000,1808,23473712250644016,3469263,182280983,4320,0
1507075200000,859,9963780330916623,3130826,59948744,4320,1
1507161600000,1193,18738401452095890,3157743,156805239,4320,0
1507248000000,889,14622161405270668,3177892,114499377,4320,0
1507334400000,671,10061167129316650,2966675,81891164,4320,0
1507420800000,679,10231860079155764,3118225,90981593,4320,1
1507507200000,680,8058377199414759,3124999,87836065,4320,1
1507593600000,660,9586674038818100,2973712,80536581,4320,1
1507680000000,557,6863561403305807,3061365,70546220,4320,1
1507766400000,672,8517228691196718,2980765,86246889,4320,0
1507852800000,782,9334411379178805,3169689,110361223,4320,0
1507939200000,930,11190239452244754,3223179,142220331,4320,0
1508025600000,726,8520090863212384,3009238,104520862,4320,0
1508112000000,626,7676524763615894,3098095,93112895,4320,0
1508198400000,669,10552046565395145,2988840,104335970,4320,0
1508284800000,502,17063553628193078,3080691,78687410,4320,0
1508371200000,536,7744856393699848,3078041,82803862,4320,2
1508457600000,705,7018494548031338,3014858,111994747,4320,0
1508544000000,578,5020249753139116,3079218,84506958,4320,0
1508630400000,517,4513449369048864,2940786,75831882,4320,0
1508716800000,298,2365648546992215,3006959,42534358,4320,0
1508803200000,714,5203805768056081,3155727,113657667,4320,0
1508889600000,445,4432293865211508,2913460,69408139,4320,0
1508976000000,429,4175630994960258,3028777,66791287,4320,0
1509062400000,450,3205037742860476,2916947,70030302,4320,0
1509148800000,372,3179769976002185,3033641,58897018,4320,0
1509235200000,411,2787562228022581,3030787,61400928,4320,0
1509321600000,576,119348612279422572,2973620,93926058,4320,0
1509408000000,626,10383353966968763,3106679,100983941,4320,0
1509494400000,574,5145579995112220,2975153,95194351,4320,0
1509580800000,458,3976237858757398,3070905,75110304,4320,1
1509667200000,377,2456723870218931,3026305,59906445,4320,0
1509753600000,355,2264914137371107,2879091,55404465,4320,0
1509840000000,379,2520223911050769,3012785,60284034,4320,0
1509926400000,472,2969582426568402,2929428,78823480,4320,0
1510012800000,402,2682986362723131,3043886,63690628,4320,0
1510099200000,356,2065951531799247,3022226,57969264,4320,0
1510185600000,588,3380522886695851,2981236,95284479,4320,0
1510272000000,547,5706282856959518,3075419,88204026,4320,0
1510358400000,334,1649072566796114,2875947,52508007,4320,0
1510444800000,394,4492063818841453,3046229,61243157,4320,0
1510531200000,383,14642371573472629,3026948,62372078,4320,0
1510617600000,448,1799790516844234,2919661,71832010,4320,0
1510704000000,442,1981323644999703,3040398,70979033,4320,0
1510790400000,443,2325764410995567,2918307,71973901,4320,0
1510876800000,370,4239882004186090,3037527,60749748,4320,0
1510963200000,448,4597492438752762,3048310,72758308,4320,1
1511049600000,443,1937147318594770,2914884,73319392,4320,6
1511136000000,678,11819167133884033,3128383,112526056,4320,0
1511222400000,542,3892886398827040,2958753,91303519,4320,0
1511308800000,470,2068071087193485,3074205,77048480,4320,0
1511395200000,485,2208606680885153,3069089,81570962,4320,0
1511481600000,468,2221605549701297,2928865,77661925,4320,0
1511568000000,492,2001941444171108,3059328,82420601,4320,0
1511654400000,774,2694062254088250,3060071,129839839,4320,0
1511740800000,1214,6787495742764336,3367280,203507620,4320,1
1511827200000,2214,7142960444851363,3765071,376086687,4320,0
1511913600000,1274,6114867733197139,3235609,207949075,4320,0
1512000000000,3217,15159970061189134,4091696,544873563,4320,2
1512086400000,3075,24499761577324874,4055459,526069775,4320,0
1512172800000,2269,6985058646137220,3772530,381755570,4320,0
1512259200000,1972,5709833405399787,3661244,334232577,4320,0
1512345600000,2768,32969991051422871,3850538,472122462,4320,0
1512432000000,3144,28841372436466726,4138283,536204627,4320,0
1512518400000,3243,19776318774690567,4076524,556724766,4320,0
1512604800000,3080,19301737935537604,4170598,529408236,4320,1
1512691200000,2981,15858341235086025,4039566,509523792,4320,2
1512777600000,2307,9766667219102457,3726015,397817485,4320,1
1512864000000,1925,5233315755219765,3689957,331000772,4320,0
1512950400000,2903,14413639643388857,3914228,499253429,4320,1
1513036800000,3453,15913638849450994,4296073,593232415,4320,0
1513123200000,3330,16431558282786376,4226586,572413354,4320,0
1513209600000,5011,25546620006884693,4866169,865688482,4320,1
1513296000000,5428,26917791631809234,5128071,936735232,4320,1
1513382400000,7126,19949301565980947,5555599,1226080362,4320,0
1513468800000,7332,35357543309941223,5980951,1266035793,4320,0
1513555200000,7110,19231739472315514,5693957,1215359591,4320,2
1513641600000,10754,29231037113489833,6964014,1846094336,4320,1
1513728000000,8367,17388710056407334,5974532,1428018715,4320,0
1513814400000,7759,18342786629482961,5629975,1324952454,4320,0
1513900800000,6840,11862773994891663,5445908,1167895349,4320,0
1513987200000,6153,9494313858233255,5169033,1049697771,4320,0
1514073600000,4770,7145905667031147,4524742,812142518,4320,0
1514160000000,4218,5873186639870564,4445348,719860952,4320,0
1514246400000,4295,6383372071166287,4347676,732098409,4320,0
1514332800000,4916,6393673805588513,4740051,840267464,4320,0
1514419200000,4882,6099972678266704,4706837,832866012,4320,1
1514505600000,5706,7964047393138304,4900270,975339920,4320,0
1514592000000,5253,5546549515200280,4894479,902028763,4320,0
1514678400000,3166,8582269727700259,3947312,541155233,4320,1
1514764800000,2957,4703791364477266,4008039,505895755,4320,2
1514851200000,3270,2901677796032025,4117903,559289502,4320,0
1514937600000,3345,2312207491816650,4059295,572844965,4320,0
1515024000000,3366,6118574222724553,4216513,575218109,4320,0
1515110400000,2499,6819949131707616,3767743,429038026,4320,0
1515196800000,3015,6978094403823742,4093397,516193856,4320,0
1515283200000,4210,9031742134876098,4496936,718077671,4320,2
1515369600000,2747,2946315540858087,3820320,468601695,4320,0
1515456000000,6445,9031585798447416,5333463,1105937569,4320,0
1515542400000,4444,7952293506692080,4455019,762284692,4320,0
1515628800000,3544,4802348776873927,4258625,607786058,4320,0
1515715200000,3769,4841180216692581,4302070,646064994,4320,2
1515801600000,6444,5926939007670385,5149273,1104420143,4320,0
1515888000000,5608,4887209572644732,4952470,960472907,4320,0
1515974400000,5315,5454517672056717,4755421,911286102,4320,0
1516060800000,5613,6205475554109064,5020520,962698826,4320,3
1516147200000,4487,4015692298496897,4582558,769401425,4320,0
1516233600000,5082,7136598606898620,4628863,871228100,4320,0
1516320000000,4041,3096610480709693,4376590,689866607,4320,0
1516406400000,4805,3355009336909480,4527517,823086658,4320,0
1516492800000,3529,2684693252770930,4250204,605182882,4320,2
1516579200000,3663,7304533298193628,4262267,626861928,4320,0
1516665600000,2913,4395625312288485,4001293,505942525,4320,0
1516752000000,2841,3273278788858559,4126933,493548300,4320,0
1516838400000,2486,4853464351202222,3845637,431411187,4320,0
1516924800000,2489,2684642735576389,4020433,434499444,4320,1
1517011200000,2643,2150818571460757,4063003,460902618,4320,0
1517097600000,2841,2964062240981003,3987988,493787165,4320,4
1517184000000,2845,3419191872436609,4098297,493978388,4320,3
1517270400000,2655,2637179705517037,3918035,461201947,4320,0
1517356800000,2597,2689868295454288,4039554,451201418,4320,0
1517443200000,2649,2710128710328852,4060128,461263202,4320,0
1517529600000,3833,3986064289874495,4444021,668419952,4320,0
1517616000000,2863,2123093681250024,4117457,498362836,4320,0
1517702400000,1931,6993231740391893,3625817,337506763,4320,1
1517788800000,2196,3174829294118413,3930761,384825949,4320,0
1517875200000,3261,107725034238235092,15843341,1074824042,4320,0
1517961600000,2570,106779473909160833,3973392,451946121,4320,0
1518048000000,1064,3239179785374696,3315364,183243693,4320,0
1518134400000,2089,67766045865076639,3714447,366265692,4320,1
1518220800000,2825,150380292958074761,4322075,500431586,4320,0
1518307200000,2204,93844002400899410,3956696,388565029,4320,0
1518393600000,2958,85878445920137493,4139355,519106738,4320,0
1518480000000,2461,73920390746322389,4047370,432801133,4320,0
1518566400000,2289,64984520709811205,3852875,403669105,4320,0
1518652800000,2276,66040049577053895,3957416,399649227,4320,0
1518739200000,2405,59789987521833941,3998627,421525819,4320,0
1518825600000,2939,61938783736461416,4137126,517500992,4320,0
1518912000000,2193,66665945672246332,3918931,385620010,4320,0
1518998400000,1975,74539190788752116,3725181,348599566,4320,1
1519084800000,2174,71317995251369998,3933501,381622781,4320,0
1519171200000,2079,61751472962057053,3869992,365519263,4320,0
1519257600000,1686,54992218374283869,3546706,295943827,4320,1
1519344000000,1924,44099357335843130,3761049,337654695,4320,0
1519430400000,1606,38822440220250353,3504276,280832261,4320,0
1519516800000,2605,36798164308907295,4107173,457527573,4320,0
1519603200000,2699,29682238070983902,4179261,475238518,4320,0
1519689600000,2295,45383359563409073,3875562,404804390,4320,0
1519776000000,3614,136017944430017357,4542021,634449360,4320,0
1519862400000,3491,99569028654681318,4371379,612930118,4320,0
1519948800000,3677,71038403158355750,4674437,649414100,4320,0
1520035200000,2767,52071858149123897,4191098,487013465,4320,0
1520121600000,2359,42418314374416470,3870035,414216038,4320,0
1520208000000,3124,48633442836056493,4366597,549912427,4320,1
1520294400000,2377,40985558531032412,3918699,419843069,4320,2
1520380800000,2778,40654232110959259,4226248,488722708,4320,0
1520467200000,3483,51521425413503799,4523730,612930393,4320,3
1520553600000,3348,46621557302650767,4398356,592465133,4320,1
1520640000000,2094,29201940614061608,3878928,369281428,4320,0
1520726400000,2049,25376035052490847,3734993,361525327,4320,1
1520812800000,2217,27881667113294603,3935876,390044635,4320,0
1520899200000,1970,20755031648484114,3894662,349610508,4320,0
1520985600000,2330,19798073090822703,3865340,411064989,4320,0
1521072000000,2910,22358458043218338,4282406,514457786,4320,7
1521158400000,2385,15806228603335691,3914466,421808017,4320,0
1521244800000,2185,14284342281308463,3961018,385325077,4320,0
1521331200000,3563,22049816299091070,4570661,626175540,4320,0
1521417600000,2932,17299481812108986,4135319,515207687,4320,1
1521504000000,2495,12310071384468627,4049655,439420887,4320,0
1521590400000,2515,11038517160726577,3969929,444625359,4320,0
1521676800000,2584,13721098175072669,4175307,456025840,4320,0
1521763200000,2456,11043341657861483,4067170,433716537,4320,0
1521849600000,3837,9490916749484905,4650068,678950281,4320,0
1521936000000,1810,10967082366673179,3748160,318615507,4320,0
1522022400000,2035,14936184584633068,3774395,360948226,4320,0
1522108800000,1012,5777713737717898,3431109,180769555,4320,0
1522195200000,1196,5576389259967632,3496080,212483087,4320,0
1522281600000,2240,11953457915098450,3826952,394638053,4320,0
1522368000000,2054,7218308827396291,3845805,361444463,4320,0
1522454400000,2107,5309038043691475,3733266,370472374,4320,0
1522540800000,1500,12072647902412637,3645941,265454027,4320,1
1522627200000,1504,7001525570897881,3602657,264875586,4320,0
1522713600000,2390,4678421339167687,3893786,420616945,4320,0
1522800000000,1970,5483116650820796,3825472,347619260,4320,0
1522886400000,3683,8563158199997764,4558039,651739925,4320,0
1522972800000,2562,5727039802400539,4129153,451678535,4320,0
1523059200000,1870,2828170772899353,3764248,328790197,4320,0
1523145600000,1976,2714157027755728,3693078,348515126,4320,0
1523232000000,1818,3044053303080882,3773908,321359673,4320,1
1523318400000,1893,2853625644387136,3663396,333860930,4320,1
1523404800000,2295,3028496062168705,4004448,405152456,4320,0
1523491200000,3686,4716568103054609,4727800,653409519,4320,1
1523577600000,2546,9197751299571614,4067014,453060047,4320,0
1523664000000,1712,7755086548970619,3709441,302686489,4320,0
1523750400000,2372,8786207327156166,3897576,418702853,4320,1
1523836800000,3256,12652745205027920,4599243,579744812,4320,0
1523923200000,4087,16264630018124696,4978722,726924822,4320,1
1524009600000,2406,5389026179008129,3978707,427506276,4320,0
1524096000000,3350,9389966788037923,4566716,595067737,4320,2
1524182400000,3075,3973938700115760,4336689,547517672,4320,1
1524268800000,2265,2280365772698120,4075469,402966162,4320,0
1524355200000,2128,2226416694155069,3966354,378036854,4320,1
1524441600000,2275,2855589298913933,3896856,403077840,4320,0
1524528000000,3503,3171663606659133,4700433,624746263,4320,0
1524614400000,2672,2628192740745852,4126538,475789051,4320,0
1524700800000,2644,3734067333320083,4181461,467079218,4320,1
1524787200000,2585,1960177586013231,4197600,458924149,4320,0
1524873600000,3852,4056827439625162,4804958,689126940,4320,0
1524960000000,3595,5044635795075664,4810127,643835949,4320,1
1525046400000,2773,7362116554506041,4176503,492950640,4320,1
1525132800000,2808,3958723155283612,4327865,499104297,4320,0
1525219200000,2901,2943220639966266,4331089,514223080,4320,0
1525305600000,2358,2768768623756300,4002305,421417145,4320,0
1525392000000,2236,2239804192287262,4020940,397596990,4320,0
1525478400000,2221,4262675996593838,3821493,392268628,4320,0
1525564800000,1628,3173757799621449,3708518,288427224,4320,0
1525651200000,1971,8421742319402534,4056991,356782759,4320,0
1525737600000,2262,6767558245069145,3898750,401571704,4320,1
1525824000000,2217,3366381495002109,3959861,391929437,4320,0
1525910400000,2144,1699211564806491,3795529,379021828,4320,0
1525996800000,2693,1958637206520706,4248905,477600684,4320,1
1526083200000,2040,4731511322958703,3880047,360749129,4320,0
1526169600000,1822,3042915199810266,3646336,322548538,4320,2
1526256000000,1957,3657948939348475,3813598,344873239,4320,0
1526342400000,1879,2558415139146443,3681613,332884993,4320,1
1526428800000,1569,1494691605014307,3667407,277375729,4320,0
1526515200000,1655,1644750578746914,3703603,292941887,4320,1
1526601600000,1720,1172572564670307,3611503,304584066,4320,0
1526688000000,1361,732797755197470,3521489,239714780,4320,0
1526774400000,1725,1373919349199162,3663330,308142522,4320,0
1526860800000,1615,1312036746242802,3704215,286479748,4320,0
1526947200000,1621,1055013443659092,3720292,287836746,4320,0
1527033600000,2135,1791550278958140,3829374,378313170,4320,0
1527120000000,1957,1704605225033403,3835412,346396570,4320,0
1527206400000,2509,1597652354802106,3857873,438484732,4320,0
1527292800000,1374,1217485629799370,3560046,242227355,4320,0
1527379200000,1541,1445552100217547,3618823,271776996,4320,0
1527465600000,2026,1518052745227616,3722820,357224125,4320,0
1527552000000,2409,1873140712312269,4117345,428945743,4320,1
1527638400000,2109,1234709418285679,3784637,373264661,4320,0
1527724800000,2459,2284966639479071,4218641,440339412,4320,17
1527811200000,1841,1874933939530861,3764298,324428248,4320,0
1527897600000,1587,2084659114322607,3517168,279189809,4320,0
1527984000000,1853,1581685248167672,3772744,326765688,4320,0
1528070400000,1846,1586197944556677,3711264,328994612,4320,0
1528156800000,1652,1438485685408563,3666355,291371946,4320,38
1528243200000,1572,1105868719716106,3680015,278509670,4320,0
1528329600000,1526,1242794314036102,3480555,269038094,4320,1
1528416000000,998,655923381553459,3324349,174581022,4320,0
1528502400000,809,553077192545560,3113749,141294532,4320,1
1528588800000,1347,1709333808848468,3521620,236030226,4320,0
1528675200000,1405,2857134421455224,3788100,257601958,4320,0
1528761600000,1593,2078437275051129,3596327,283965219,4320,1
1528848000000,1620,1754366262752747,3653908,284646707,4320,0
1528934400000,2931,100753864650056087,4234762,520704644,4320,0
1529020800000,1388,18941661743190843,3828574,256604571,4320,1
1529107200000,1130,52423447323378666,3396524,197948415,4320,0
1529193600000,1041,54404630422846871,3222533,182180846,4320,0
1529280000000,1128,40258779550417549,3512040,203135042,4320,0
1529366400000,1395,78405001002875028,3614189,254703605,4320,2
1529452800000,1356,51908012642443025,3510987,237136429,4320,0
1529539200000,1303,69194417061633243,3483556,228910986,4320,3
1529625600000,1386,68946402067749688,3423425,244538466,4320,0
1529712000000,1230,74125875934503629,3442291,215692269,4320,0
1529798400000,1456,81668217159212094,3465331,257771074,4320,0
1529884800000,1642,92137060370610091,3647666,287838514,4320,1
1529971200000,926,64627709970166734,3315261,162680764,4320,1
1530057600000,1297,73289093504500243,3866736,250328231,4320,0
1530144000000,1347,64896980228230517,3494963,236537181,4320,1
1530230400000,1620,77754985632828410,3519205,285236079,4320,0
1530316800000,1613,60060614457752683,3642684,283432710,4320,0
1530403200000,1554,55768024600248756,3630875,274435753,4320,0
1530489600000,1981,72825906477873347,3712762,349687054,4320,0
1530576000000,1503,61640049097032653,3569129,264057977,4320,1
1530662400000,1395,48108904338764981,3435804,246423366,4320,0
1530748800000,1356,42432335642647921,3588137,240781808,4320,0
1530835200000,1153,34263060544061172,3447798,203920755,4320,0
1530921600000,962,28248279478778502,3196446,168882984,4320,0
1531008000000,1200,32720065674387920,3438205,211437279,4320,0
1531094400000,1158,32926732387162029,3280272,202939427,4320,0
1531180800000,1170,36238220500588345,3440262,205524506,4320,0
1531267200000,1202,30204007529117650,3423343,210198489,4320,0
1531353600000,1168,32376592476022367,3302882,205485904,4320,0
1531440000000,1386,43008960282167543,3549217,245015643,4320,0
1531526400000,1199,32672626842807496,3297760,210438873,4320,0
1531612800000,1029,29868293472548468,3380542,180988343,4320,1
1531699200000,1601,42990358923287846,3626139,281404459,4320,1
1531785600000,1755,45528266399559220,3699925,314479817,4320,0
1531872000000,2243,45309493784739707,4059255,400828720,4320,0
1531958400000,1509,13924415419071561,3516301,267783090,4320,11
1532044800000,1938,32729216508328716,3811408,341137997,4320,0
1532131200000,1483,27065836811687535,3541489,259206499,4320,0
1532217600000,1573,21265502922826091,3484275,276292942,4320,0
1532304000000,2265,19270086559049280,3939781,399012751,4320,1
1532390400000,1993,19213665030697970,3816624,356762248,4320,0
1532476800000,1876,13791135636104614,3784017,330611046,4320,0
1532563200000,1580,10060527966592646,3611043,277468714,4320,1
1532649600000,1268,6345037473868260,3419509,226348262,4320,1
1532736000000,907,5280426741215958,3343731,161547820,4320,0
1532822400000,951,5200557933036273,3192217,166941810,4320,0
1532908800000,937,3139139273334987,3360123,166012038,4320,1
1532995200000,1241,5913642569080974,3508307,220390264,4320,2
1533081600000,1144,7562101330570283,3266330,200277117,4320,0
1533168000000,1223,5550500833663839,3476892,216035650,4320,2
1533254400000,1219,6629229431334846,3290680,212549690,4320,2
1533340800000,1007,3880803435429277,3382670,177672706,4320,0
1533427200000,756,2618154644500196,3235565,132955684,4320,2
1533513600000,937,2750614418637621,3185878,164448941,4320,0
1533600000000,637,2014725105756005,3193515,112899884,4320,2
1533686400000,935,2632101944394156,3281091,168454377,4320,0
1533772800000,1307,3873572056942003,3579729,232979101,4320,6
1533859200000,1176,2600187202651002,3462688,208344849,4320,2
1533945600000,1366,19303600965058106,3416435,241698203,4320,0
1534032000000,1009,18594929209877032,3324072,176838059,4320,5
1534118400000,1326,20586978538220500,3402076,234865256,4320,1
1534204800000,2078,27701489058080448,3947129,369165319,4320,2
1534291200000,1739,20484516724006974,3736874,307920352,4320,0
1534377600000,1255,13824970554914854,3346693,221427368,4320,3
1534464000000,1527,13876066241260932,3602248,269612322,4320,4
1534550400000,1361,6986229171321372,3482845,243858410,4320,0
1534636800000,1004,5408834221763741,3360751,176571576,4320,6
1534723200000,1136,4878867100199367,3416778,200204739,4320,6
1534809600000,1234,3815940295515610,3341519,217912002,4320,1
1534896000000,1217,13170384463170377,4297300,251935262,4320,0
1534982400000,1275,13487216438896449,3396168,226729044,4320,1
1535068800000,1130,7797847105384021,3446554,199924283,4320,6
1535155200000,991,3608577607614629,3396222,176494551,4320,0
1535241600000,975,3167101623976863,3218127,172089641,4320,1
1535328000000,1535,6704579504990444,3645976,272532834,4320,6
1535414400000,1644,3927286828349748,3609262,293403522,4320,4
1535500800000,1654,5508919779437546,8162341,488489323,4320,0
1535587200000,1332,2377477434612849,3609185,239489313,4320,21
1535673600000,1299,3626266578036332,3405262,230775558,4320,2
1535760000000,1427,2031911140940708,3590695,253283539,4320,0
1535846400000,1166,1332291282183496,3335655,207657124,4320,8
1535932800000,1148,1654600569080711,3463802,203215843,4320,1
1536019200000,1257,4530362658361492,3488656,221951930,4320,3
1536105600000,1658,1784371175643695,3723150,300311392,4320,0
1536192000000,1582,1894438175722127,3791851,286507262,4320,6
1536278400000,1318,1301089081651086,3465163,236143608,4320,1
1536364800000,1220,1110651227006328,3547224,218075209,4320,0
1536451200000,1290,1152425336983485,3559202,229759231,4320,3
1536537600000,1391,2305857038612034,3475037,248210997,4320,5
1536624000000,1487,2309259935293186,3663096,265784927,4320,3
1536710400000,1903,6724901417815040,3755442,341823732,4320,0
1536796800000,1545,2872586367391632,3684096,274894609,4320,2
1536883200000,1343,2275241208631152,3547031,237888493,4320,2
1536969600000,1111,1555239230608808,3303074,196918229,4320,0
1537056000000,1144,1475029316489657,3422454,202109274,4320,5
1537142400000,1262,1476260714497078,3403050,224766012,4320,4
1537228800000,1434,5133405835108993,3634128,255228261,4320,1
1537315200000,1533,2198316748831120,3635410,271276423,4320,0
1537401600000,1577,1714908927313125,3873357,294376623,4320,4
1537488000000,1934,1316236247065824,3975506,349199022,4320,4
1537574400000,1374,1247701750129434,3439771,243839127,4320,0
1537660800000,1669,1975560370176893,3820896,299940324,4320,3
1537747200000,1357,2250865840217360,3565107,240705390,4320,2
1537833600000,1572,1555374769192728,3545101,279233923,4320,6
1537920000000,1708,1156048983025921,3763194,304818782,4320,0
1538006400000,1510,2732709785207842,3545943,269665389,4320,2
1538092800000,1797,3464048807069277,3859366,321735460,4320,4
1538179200000,1369,2627810287729180,3590114,243549748,4320,0
1538265600000,1390,1393901408282204,3438519,246419533,4320,5
1538352000000,1478,1355110211646542,3594344,262459856,4320,32
1538438400000,1409,1111798895971662,3507348,252567675,4320,6
1538524800000,1424,2866956350853178,3611421,252746246,4320,0
1538611200000,1195,4304277574135679,3466298,211292260,4320,3
1538697600000,1188,2167033045353836,3307268,209215850,4320,2
1538784000000,1114,1380075995147985,3409157,196732398,4320,0
1538870400000,1018,1360766811243505,3246788,180184217,4320,5
1538956800000,1504,7202961832184725,3746183,271171577,4320,1
1539043200000,1264,9563047802529283,3514474,223830177,4320,0
1539129600000,1057,3820719777458596,3284654,187926360,4320,0
1539216000000,1301,2623815099243875,3581117,233055043,4320,2
1539302400000,1132,1944819393514611,3387506,204244636,4320,5
1539388800000,961,1069363416408031,3394273,171404842,4320,0
1539475200000,923,1131456439503779,3366946,164819684,4320,1
1539561600000,1905,5546500189984987,3703316,337721038,4320,5
1539648000000,1511,8476284283652581,3575113,266092060,4320,7
1539734400000,1406,7119761188305146,4108631,278289788,4320,0
1539820800000,1281,4004408922478099,3603889,230143132,4320,3
1539907200000,1184,4533649687137829,3448493,208935096,4320,3
1539993600000,1156,1841967522812926,3429282,209423295,4320,0
1540080000000,1016,1703663663656777,3395948,181127767,4320,6
1540166400000,1201,2317646371832319,3308598,211559856,4320,8
1540252800000,1252,1714643012040997,3507662,221630584,4320,2
1540339200000,1251,1760886239800622,3508948,221753562,4320,0
1540425600000,1231,2317778768719357,3391865,218800820,4320,5
1540512000000,1264,2812967423978022,3536123,224732386,4320,3
1540598400000,1149,1830005809755006,3270871,200622482,4320,0
1540684800000,1079,1139185142201720,3403494,190139883,4320,4
1540771200000,1222,1456167644313616,3445276,214988102,4320,1
1540857600000,1212,1261533892693664,3358038,215031722,4320,2
1540944000000,1240,2231090169125899,3666969,227713074,4320,0
1541030400000,1150,2497363070235557,3277838,220991812,4320,7
1541116800000,1287,4869763015786538,3507017,226643836,4320,4
1541203200000,1038,3664453139815589,3375663,182598230,4320,0
1541289600000,1371,4146142101546728,3465580,244930002,4320,7
1541376000000,1391,2524017151816719,3538403,245736119,4320,4
1541462400000,1726,2022285203286201,3617912,306249235,4320,4
1541548800000,1508,1828508381492990,3672397,269266076,4320,0
1541635200000,1407,1363248941228818,3573212,249303233,4320,3
1541721600000,1196,10057079704485468,3391853,214219594,4320,5
1541808000000,1016,563124174893005,3350014,178648171,4320,0
1541894400000,1189,772213695670329,3320494,209860438,4320,3
1541980800000,1271,2234268108691429,3679210,232019811,4320,2
1542067200000,1077,887455332859787,3392360,189965251,4320,3
1542153600000,1543,12587465171334228,3531017,274078162,4320,0
1542240000000,1680,11962315243561887,3753792,300405697,4320,2
1542326400000,1575,8245660884249203,3503030,278260542,4320,3
1542412800000,973,5025791403051776,3140680,174381742,4320,406
1542499200000,164,33938962978062,2634742,28887637,4320,504
1542585600000,473,1478590185125962,2984799,83917526,4320,0
1542672000000,1271,8977348912275534,3440637,221065904,4320,2
1542758400000,772,3695737312385133,3104675,134825426,4320,0
1542844800000,666,2219404465035942,3205987,117349274,4320,3
1542931200000,705,3095495175745110,3205837,123892413,4320,6
1543017600000,708,3382909556599720,3134747,126786607,4320,0
1543104000000,1288,2294078128605975,3531112,229295159,4320,4
1543190400000,1532,2461409346167578,3511395,271660876,4320,3
1543276800000,1399,2092912826329800,3576715,247490661,4320,3
1543363200000,1628,1734553310485462,3699109,288880460,4320,0
1543449600000,1565,1130930748956755,3601890,280845615,4320,4
1543536000000,1386,1082746958261003,3535423,244327828,4320,2
1543622400000,1093,1620385418743449,3301407,194080328,4320,0
1543708800000,1094,508076056811812,3400828,192354387,4320,7
1543795200000,963,1087020902301419,3344082,169818563,4320,3
1543881600000,1336,796062411347234,3640070,246789693,4320,4
1543968000000,1580,1146811693905726,3808463,286628371,4320,0
1544054400000,2948,1127692267241359,12052331,867175017,4320,3
1544140800000,1692,1015441077736553,3716204,299345256,4320,5
1544227200000,1166,452352203041258,3433986,205661735,4320,0
1544313600000,1186,321100180361970,3307872,208837645,4320,1
1544400000000,1052,866566732400573,3376371,186019029,4320,2
1544486400000,1141,1130850186673020,3280642,200515137,4320,1
1544572800000,1342,1399893120309051,3489127,234857498,4320,0
1544659200000,1502,56663081932108270,4815172,318224429,4320,3
1544745600000,1328,76392490802078424,3504438,239854396,4320,3
1544832000000,1184,66434545455472754,3458688,209821137,4320,0
1544918400000,1270,62872746996406963,3497047,230262683,4320,0
1545004800000,1637,59935375097782078,3706098,291000490,4320,0
1545091200000,1555,47284735666759337,3671174,278684583,4320,0
1545177600000,1955,39687701544552031,3854853,357439328,4320,0
